DDR_controller/DDR_Pre_Syn.vcd
$comment
TOOL:	simvision(64)	15.20-s086
$end

$date
    Apr 16, 2023 02:01:31
$end

$timescale
    1ps
$end


$scope module top_DDR_controller_tb $end

$scope module dut $end
$var wire 9 ! BURST_counter [8:0] $end
$var wire 9 " CAS_counter [8:0] $end
$var wire 11 # DRAM_Address [10:0] $end
$var wire 9 $ PRE_counter [8:0] $end
$var wire 9 % RCD_counter [8:0] $end
$var wire 9 & REF_counter [8:0] $end
$var wire 16 ' Read_data [15:0] $end
$var wire 1 ( WR_command $end
$var wire 16 ) Write_data [15:0] $end
$var wire 6 * active_row[3] $end
$var wire 6 + active_row[2] $end
$var wire 6 , active_row[1] $end
$var wire 6 - active_row[0] $end
$var wire 6 . bank_id [5:0] $end
$var wire 1 / busy $end
$var wire 1 0 clk $end
$var wire 1 1 cmd_exec_ack $end
$var wire 6 2 column_addr [5:0] $end
$var wire 4 3 controller_state [3:0] $end
$var wire 6 4 d_addr [5:0] $end
$var wire 7 5 data_counter [6:0] $end
$var wire 8 6 dq [7:0] $end
$var wire 1 7 dram_cas $end
$var wire 1 8 dram_clk_en $end
$var wire 1 9 dram_dqs $end
$var wire 1 : dram_ras $end
$var wire 8 ; dram_rd_data [7:0] $end
$var wire 8 < dram_wr_data [7:0] $end
$var wire 4 = next_controller_state [3:0] $end
$var wire 4 > open_row [3:0] $end
$var wire 1 ? read_flag $end
$var wire 14 @ refresh_counter [13:0] $end
$var wire 1 A refresh_request $end
$var wire 1 B reset $end
$var wire 6 C row_addr [5:0] $end
$var wire 1 D temp_cmd $end
$var wire 16 E temp_write_data[3] $end
$var wire 16 F temp_write_data[2] $end
$var wire 16 G temp_write_data[1] $end
$var wire 16 H temp_write_data[0] $end
$var wire 1 I valid_data $end
$var wire 1 J w_en $end
$var wire 6 K write_burst_count [5:0] $end
$upscope $end

$upscope $end

$enddefinitions $end
#0
$dumpvars
bx !
bx "
bx #
bx $
bx %
bx &
bx '
x(
bx )
b0 *
b0 +
b0 ,
b0 -
bx .
x/
00
x1
bx 2
bx 3
bx 4
bx 5
bx 6
x7
x8
x9
x:
bx ;
b0 <
bx =
b0 >
x?
bx @
xA
1B
bx C
xD
bx E
bx F
bx G
bx H
0I
xJ
b0 K
$end
#5000
b100 !
b1011 "
b1011 $
b0 3
b0 4
b0 5
0J
b1100 %
07
08
b0 .
z9
0:
b111101000 &
0/
b0 =
10
0?
01
b11000011010100 @
0A
b0 2
b0 C
#10000
00
#15000
10
#20000
00
#25000
10
#30000
00
1(
b1010101010101010 )
b0 6
b1101011010 #
0B
#35000
b10 4
1D
10
b1 .
b101011 C
b1 =
b10 2
b11000011010011 @
11
#40000
00
b1111111100000000 )
#45000
10
01
b1 3
b11000011010010 @
1:
1/
b10 =
#50000
00
b1100110011001100 )
#55000
10
b101011 4
b1100110011001100 H
b101011 ,
b1 5
b11000011010001 @
b10 3
b10 >
#60000
00
b1110111011101110 )
#65000
10
b1110111011101110 G
b1011 %
b11000011010000 @
b10 5
#70000
b1000100010001 )
00
#75000
10
b1000100010001 F
b11 5
b11000011001111 @
b1010 %
#80000
00
#85000
10
b1001 %
b1000100010001 E
b11000011001110 @
b100 5
#90000
00
#95000
10
b101 5
b1000 %
b11000011001101 @
#100000
00
#105000
10
b11000011001100 @
b110 5
b111 %
#110000
00
#115000
10
b110 %
b11000011001011 @
b111 5
#120000
00
#125000
10
b1000 5
b101 %
b11000011001010 @
#130000
00
#135000
10
b11000011001001 @
b1001 5
b100 %
#140000
00
#145000
10
b11 %
b11000011001000 @
b1010 5
#150000
00
#155000
10
b1011 5
b10 %
b11000011000111 @
#160000
00
#165000
10
b11000011000110 @
b1100 5
b1 %
#170000
00
#175000
10
b0 %
b11000011000101 @
b101 =
b1101 5
#180000
00
#185000
10
b1110 5
b11000011000100 @
b1100 %
b10 4
b110 =
b101 3
0:
#190000
00
#195000
10
b11000011000011 @
17
b110 3
#200000
00
#205000
10
b1010 "
b11000011000010 @
#210000
00
#215000
10
b11000011000001 @
b1001 "
#220000
00
#225000
10
b1000 "
b11000011000000 @
#230000
00
#235000
10
b11000010111111 @
b111 "
#240000
00
#245000
10
b110 "
b11000010111110 @
#250000
00
#255000
10
b11000010111101 @
b101 "
#260000
00
#265000
10
b100 "
b11000010111100 @
#270000
00
#275000
10
b11000010111011 @
b11 "
#280000
00
#285000
10
b10 "
b11000010111010 @
#290000
00
#295000
10
b11000010111001 @
b1 "
#300000
00
#305000
10
b0 "
b11000010111000 @
b1011 =
#310000
00
#315000
10
b1011 3
19
b1011 "
18
b11000010110111 @
b11001100 <
07
1?
b11001100 6
#320000
00
09
#325000
19
10
b11 !
b1 K
b11101110 6
b11000010110110 @
b11101110 <
#330000
00
09
#335000
19
10
b10001 <
b10 K
b10 !
b11000010110101 @
b10001 6
#340000
00
09
#345000
19
10
b11 K
b11000010110100 @
b1 !
#350000
00
09
#355000
19
10
b0 !
0(
bx 6
b0 =
b11000010110011 @
b1101101111 #
b100 K
#360000
09
00
#365000
10
z9
b101 K
b100 !
b0 3
08
0/
b11000010110010 @
0?
#370000
00
#375000
10
11
b0 K
0D
b11000010110001 @
b111 =
b111 4
b111 2
b101101 C
#380000
00
#385000
10
b0 >
01
b11000010110000 @
b111 3
b1000 =
1/
#390000
00
#395000
10
1J
1:
b1000 3
b11000010101111 @
b101011 4
#400000
00
#405000
10
b1010 $
b11000010101110 @
#410000
00
#415000
10
b11000010101101 @
b1001 $
#420000
00
#425000
10
b1000 $
b11000010101100 @
#430000
00
#435000
10
b11000010101011 @
b111 $
#440000
00
#445000
10
b110 $
b11000010101010 @
#450000
00
#455000
10
b11000010101001 @
b101 $
#460000
00
#465000
10
b100 $
b11000010101000 @
#470000
00
#475000
10
b11000010100111 @
b11 $
#480000
00
#485000
10
b10 $
b11000010100110 @
#490000
00
#495000
10
b11000010100101 @
b1 $
#500000
00
#505000
10
b0 $
b11000010100100 @
b1 =
#510000
00
#515000
10
b10 =
b111 4
0J
b11000010100011 @
b1011 $
b1 3
#520000
00
#525000
10
b10 3
b101101 4
b101101 ,
b10 >
b11000010100010 @
#530000
00
#535000
10
b11000010100001 @
b1011 %
#540000
00
#545000
10
b1010 %
b11000010100000 @
#550000
00
#555000
10
b11000010011111 @
b1001 %
#560000
00
#565000
10
b1000 %
b11000010011110 @
#570000
00
#575000
10
b11000010011101 @
b111 %
#580000
00
#585000
10
b110 %
b11000010011100 @
#590000
00
#595000
10
b11000010011011 @
b101 %
#600000
00
#605000
10
b100 %
b11000010011010 @
#610000
00
#615000
10
b11000010011001 @
b11 %
#620000
00
#625000
10
b10 %
b11000010011000 @
#630000
00
#635000
10
b11000010010111 @
b1 %
#640000
00
#645000
10
b0 %
b11000010010110 @
b11 =
#650000
00
#655000
10
b100 =
b11000010010101 @
b11 3
b1100 %
b111 4
17
0:
#660000
00
#665000
10
b100 3
b11000010010100 @
#670000
00
#675000
10
b11000010010011 @
b1010 "
#680000
00
#685000
10
b1001 "
b11000010010010 @
#690000
00
#695000
10
b11000010010001 @
b1000 "
#700000
00
#705000
10
b111 "
b11000010010000 @
#710000
00
#715000
10
b11000010001111 @
b110 "
#720000
00
#725000
10
b101 "
b11000010001110 @
#730000
00
#735000
10
b11000010001101 @
b100 "
#740000
00
#745000
10
b11 "
b11000010001100 @
#750000
00
#755000
10
b11000010001011 @
b10 "
#760000
00
#765000
10
b1 "
b11000010001010 @
#770000
00
#775000
10
b11000010001001 @
b0 "
1?
b1011 =
#780000
00
#785000
10
b1011 "
b11000010001000 @
19
1I
b1011 3
07
18
#790000
00
09
#793000
b11111110 6
#795000
19
10
b11000010000111 @
b11 !
bx11111110 '
#798000
b10101 6
#800000
b1010111111110 '
00
09
#803000
b10011000 6
#805000
19
10
b1010110011000 '
b11000010000110 @
b10 !
#808000
b10010111 6
#810000
b1001011110011000 '
00
09
#813000
b11010101 6
#815000
19
10
b1001011111010101 '
b1 !
b11000010000101 @
#818000
b10111 6
#820000
b1011111010101 '
00
09
#823000
b11110111 6
#825000
19
10
b1011111110111 '
b0 =
b11000010000100 @
b0 !
#830000
b1111011111110111 '
00
09
#835000
z9
10
0?
b100 !
0I
08
0/
b11000010000011 @
b0 3
#840000
00
#845000
10
b11 =
b11000010000010 @
11
#850000
00
#855000
10
01
b11 3
b11000010000001 @
b100 =
1/
17
#860000
00
#865000
10
b100 3
b11000010000000 @
#870000
00
#875000
10
b1010 "
b11000001111111 @
#880000
00
#885000
10
b11000001111110 @
b1001 "
#890000
00
#895000
10
b1000 "
b11000001111101 @
#900000
00
#905000
10
b11000001111100 @
b111 "
#910000
00
#915000
10
b110 "
b11000001111011 @
#920000
00
#925000
10
b11000001111010 @
b101 "
#930000
00
#935000
10
b100 "
b11000001111001 @
#940000
00
#945000
10
b11000001111000 @
b11 "
#950000
00
#955000
10
b10 "
b11000001110111 @
#960000
00
#965000
10
b11000001110110 @
b1 "
#970000
00
#975000
10
b0 "
1?
b11000001110101 @
b1011 =
#980000
00
#985000
10
b1011 "
07
18
19
1I
b11000001110100 @
b1011 3
#990000
09
00
#995000
10
19
b11 !
b11000001110011 @
#1000000
09
00
#1005000
10
19
b11000001110010 @
b10 !
#1010000
09
00
#1015000
10
19
b1 !
b11000001110001 @
#1020000
09
00
#1025000
10
19
b0 =
b11000001110000 @
b0 !
#1030000
00
09
#1035000
z9
10
b0 3
b100 !
08
b11000001101111 @
0/
0I
0?
#1040000
00
#1045000
10
b11 =
11
b11000001101110 @
#1050000
00
#1055000
10
b11000001101101 @
b100 =
17
b11 3
01
1/
#1060000
00
#1065000
10
b11000001101100 @
b100 3
#1070000
00
#1075000
10
b1010 "
b11000001101011 @
#1080000
00
#1085000
10
b11000001101010 @
b1001 "
#1090000
00
#1095000
10
b1000 "
b11000001101001 @
#1100000
00
#1105000
10
b11000001101000 @
b111 "
#1110000
00
#1115000
10
b110 "
b11000001100111 @
#1120000
00
#1125000
10
b11000001100110 @
b101 "
#1130000
00
#1135000
10
b100 "
b11000001100101 @
#1140000
00
#1145000
10
b11000001100100 @
b11 "
#1150000
00
#1155000
10
b10 "
b11000001100011 @
#1160000
00
#1165000
10
b11000001100010 @
b1 "
#1170000
00
#1175000
10
b0 "
1?
b1011 =
b11000001100001 @
#1180000
00
#1185000
10
b11000001100000 @
b1011 3
07
19
b1011 "
18
1I
#1190000
09
00
#1195000
10
19
b11000001011111 @
b11 !
#1200000
00
09
#1205000
19
10
b11000001011110 @
b10 !
#1210000
09
00
#1215000
10
19
b11000001011101 @
b1 !
#1220000
00
09
#1225000
19
10
b11000001011100 @
b0 !
b0 =
#1230000
09
00
#1235000
10
z9
b11000001011011 @
0I
0/
b0 3
0?
b100 !
08
#1240000
00
#1245000
10
b11000001011010 @
b11 =
11
#1250000
00
#1255000
10
01
b11 3
1/
b11000001011001 @
17
b100 =
#1260000
00
#1265000
10
b11000001011000 @
b100 3
#1270000
00
#1275000
10
b11000001010111 @
b1010 "
#1280000
00
#1285000
10
b1001 "
b11000001010110 @
#1290000
00
#1295000
10
b11000001010101 @
b1000 "
#1300000
00
#1305000
10
b111 "
b11000001010100 @
#1310000
00
#1315000
10
b11000001010011 @
b110 "
#1320000
00
#1325000
10
b101 "
b11000001010010 @
#1330000
00
#1335000
10
b11000001010001 @
b100 "
#1340000
00
#1345000
10
b11 "
b11000001010000 @
#1350000
00
#1355000
10
b11000001001111 @
b10 "
#1360000
00
#1365000
10
b1 "
b11000001001110 @
#1370000
00
#1375000
10
b11000001001101 @
b1011 =
b0 "
1?
#1380000
00
#1385000
10
b11000001001100 @
1I
18
19
b1011 3
b1011 "
07
#1390000
09
00
#1395000
10
19
b11000001001011 @
b11 !
#1400000
09
00
#1405000
10
19
b10 !
b11000001001010 @
#1410000
09
00
#1415000
10
19
b11000001001001 @
b1 !
#1420000
09
00
#1425000
10
19
b0 !
b11000001001000 @
b0 =
#1430000
09
00
#1435000
10
z9
0I
0?
08
0/
b11000001000111 @
b100 !
b0 3
#1440000
00
#1445000
10
11
b11 =
b11000001000110 @
#1450000
00
#1455000
10
b11000001000101 @
01
b11 3
17
b100 =
1/
#1460000
00
#1465000
10
b100 3
b11000001000100 @
#1470000
00
#1475000
10
b11000001000011 @
b1010 "
#1480000
00
#1485000
10
b1001 "
b11000001000010 @
#1490000
00
#1495000
10
b11000001000001 @
b1000 "
#1500000
00
#1505000
10
b111 "
b11000001000000 @
#1510000
00
#1515000
10
b11000000111111 @
b110 "
#1520000
00
#1525000
10
b101 "
b11000000111110 @
#1530000
00
#1535000
10
b11000000111101 @
b100 "
#1540000
00
#1545000
10
b11 "
b11000000111100 @
#1550000
00
#1555000
10
b11000000111011 @
b10 "
#1560000
00
#1565000
10
b1 "
b11000000111010 @
#1570000
00
#1575000
10
b11000000111001 @
1?
b0 "
b1011 =
#1580000
00
#1585000
10
b1011 3
19
18
b11000000111000 @
1I
b1011 "
07
#1590000
00
09
#1595000
19
10
b11000000110111 @
b11 !
#1600000
00
09
#1605000
19
10
b10 !
b11000000110110 @
#1610000
00
09
#1615000
19
10
b11000000110101 @
b1 !
#1620000
00
09
#1625000
19
10
b0 !
b0 =
b11000000110100 @
#1630000
00
09
#1635000
z9
10
b11000000110011 @
b100 !
0/
b0 3
08
0I
0?
#1640000
00
#1645000
10
b11000000110010 @
11
b11 =
#1650000
00
#1655000
10
b100 =
b11000000110001 @
b11 3
1/
17
01
#1660000
00
#1665000
10
b100 3
b11000000110000 @
#1670000
00
#1675000
10
b11000000101111 @
b1010 "
#1680000
00
#1685000
10
b1001 "
b11000000101110 @
#1690000
00
#1695000
10
b11000000101101 @
b1000 "
#1700000
00
#1705000
10
b111 "
b11000000101100 @
#1710000
00
#1715000
10
b11000000101011 @
b110 "
#1720000
00
#1725000
10
b101 "
b11000000101010 @
#1730000
00
#1735000
10
b11000000101001 @
b100 "
#1740000
00
#1745000
10
b11 "
b11000000101000 @
#1750000
00
#1755000
10
b11000000100111 @
b10 "
#1760000
00
#1765000
10
b1 "
b11000000100110 @
#1770000
00
#1775000
10
b11000000100101 @
b1011 =
1?
b0 "
#1780000
00
#1785000
10
b1011 "
b11000000100100 @
19
b1011 3
1I
07
18
#1790000
09
00
#1795000
10
19
b11 !
b11000000100011 @
#1800000
00
09
#1805000
19
10
b10 !
b11000000100010 @
#1810000
09
00
#1815000
10
19
b1 !
b11000000100001 @
#1820000
00
09
#1825000
19
10
b0 !
b0 =
b11000000100000 @
#1830000
00
09
#1835000
z9
10
b11000000011111 @
08
0/
b100 !
0?
0I
b0 3
#1840000
00
#1845000
10
b11000000011110 @
b11 =
11
#1850000
00
#1855000
10
01
b100 =
b11 3
1/
b11000000011101 @
17
#1860000
00
#1865000
10
b100 3
b11000000011100 @
#1870000
00
#1875000
10
b11000000011011 @
b1010 "
#1880000
00
#1885000
10
b1001 "
b11000000011010 @
#1890000
00
#1895000
10
b11000000011001 @
b1000 "
#1900000
00
#1905000
10
b111 "
b11000000011000 @
#1910000
00
#1915000
10
b11000000010111 @
b110 "
#1920000
00
#1925000
10
b101 "
b11000000010110 @
#1930000
00
#1935000
10
b11000000010101 @
b100 "
#1940000
00
#1945000
10
b11 "
b11000000010100 @
#1950000
00
#1955000
10
b11000000010011 @
b10 "
#1960000
00
#1965000
10
b1 "
b11000000010010 @
#1970000
00
#1975000
10
b11000000010001 @
b0 "
b1011 =
1?
#1980000
00
#1985000
10
b1011 "
b11000000010000 @
19
07
18
1I
b1011 3
#1990000
00
09
#1995000
19
10
b11000000001111 @
b11 !
#2000000
00
09
#2005000
19
10
b10 !
b11000000001110 @
#2010000
00
09
#2015000
19
10
b11000000001101 @
b1 !
#2020000
00
09
#2025000
19
10
b0 !
b11000000001100 @
b0 =
#2030000
00
09
#2035000
z9
10
0?
0/
b0 3
b11000000001011 @
b100 !
0I
08
#2040000
00
#2045000
10
11
b11 =
b11000000001010 @
#2050000
00
#2055000
10
b11000000001001 @
1/
17
01
b100 =
b11 3
#2060000
00
#2065000
10
b100 3
b11000000001000 @
#2070000
00
#2075000
10
b11000000000111 @
b1010 "
#2080000
00
#2085000
10
b1001 "
b11000000000110 @
#2090000
00
#2095000
10
b11000000000101 @
b1000 "
#2100000
00
#2105000
10
b111 "
b11000000000100 @
#2110000
00
#2115000
10
b11000000000011 @
b110 "
#2120000
00
#2125000
10
b101 "
b11000000000010 @
#2130000
00
#2135000
10
b11000000000001 @
b100 "
#2140000
00
#2145000
10
b11 "
b11000000000000 @
#2150000
00
#2155000
10
b10111111111111 @
b10 "
#2160000
00
#2165000
10
b1 "
b10111111111110 @
#2170000
00
#2175000
10
b10111111111101 @
b0 "
1?
b1011 =
#2180000
00
#2185000
10
b1011 "
b1011 3
19
07
18
b10111111111100 @
1I
#2190000
09
00
#2195000
10
19
b10111111111011 @
b11 !
#2200000
00
09
#2205000
19
b10 !
10
b10111111111010 @
#2210000
09
00
#2215000
10
b10111111111001 @
19
b1 !
#2220000
00
09
#2225000
19
b0 !
b0 =
10
b10111111111000 @
#2230000
09
00
#2235000
10
b10111111110111 @
b100 !
0I
08
b0 3
0/
z9
0?
#2240000
00
#2245000
10
b10111111110110 @
11
b11 =
#2250000
00
#2255000
10
b100 =
b11 3
17
01
b10111111110101 @
1/
#2260000
00
#2265000
10
b100 3
b10111111110100 @
#2270000
00
#2275000
10
b10111111110011 @
b1010 "
#2280000
00
#2285000
10
b1001 "
b10111111110010 @
#2290000
00
#2295000
10
b10111111110001 @
b1000 "
#2300000
00
#2305000
10
b111 "
b10111111110000 @
#2310000
00
#2315000
10
b10111111101111 @
b110 "
#2320000
00
#2325000
10
b101 "
b10111111101110 @
#2330000
00
#2335000
10
b10111111101101 @
b100 "
#2340000
00
#2345000
10
b11 "
b10111111101100 @
#2350000
00
#2355000
10
b10111111101011 @
b10 "
#2360000
00
#2365000
10
b1 "
b10111111101010 @
#2370000
00
#2375000
10
b10111111101001 @
b0 "
1?
b1011 =
#2380000
00
#2385000
10
b10111111101000 @
1I
b1011 "
18
b1011 3
19
07
#2390000
00
09
#2395000
19
b11 !
b10111111100111 @
10
#2400000
00
09
#2405000
19
10
b10 !
b10111111100110 @
#2410000
00
09
#2415000
19
10
b10111111100101 @
b1 !
#2420000
00
09
#2425000
19
10
b0 =
b0 !
b10111111100100 @
#2430000
09
00
#2435000
10
z9
0?
0/
b10111111100011 @
0I
b100 !
08
b0 3
#2440000
00
#2445000
10
b10111111100010 @
b11 =
11
#2450000
00
#2455000
10
01
b10111111100001 @
b11 3
17
1/
b100 =
#2460000
00
#2465000
10
b10111111100000 @
b100 3
#2470000
00
#2475000
10
b1010 "
b10111111011111 @
#2480000
00
#2485000
10
b10111111011110 @
b1001 "
#2490000
00
#2495000
10
b1000 "
b10111111011101 @
#2500000
00
#2505000
10
b10111111011100 @
b111 "
#2510000
00
#2515000
10
b110 "
b10111111011011 @
#2520000
00
#2525000
10
b10111111011010 @
b101 "
#2530000
00
#2535000
10
b100 "
b10111111011001 @
#2540000
00
#2545000
10
b10111111011000 @
b11 "
#2550000
00
#2555000
10
b10 "
b10111111010111 @
#2560000
00
#2565000
10
b10111111010110 @
b1 "
#2570000
00
#2575000
10
b0 "
b1011 =
b10111111010101 @
1?
#2580000
00
#2585000
10
b10111111010100 @
b1011 3
07
19
b1011 "
1I
18
#2590000
09
00
#2595000
10
19
b10111111010011 @
b11 !
#2600000
09
00
#2605000
10
19
b10 !
b10111111010010 @
#2610000
09
00
#2615000
10
19
b10111111010001 @
b1 !
#2620000
09
00
#2625000
10
19
b0 !
b0 =
b10111111010000 @
#2630000
00
09
#2635000
z9
10
b100 !
08
0?
b0 3
b10111111001111 @
0/
0I
#2640000
00
#2645000
10
11
b11 =
b10111111001110 @
#2650000
00
#2655000
10
b10111111001101 @
b11 3
17
b100 =
1/
01
#2660000
00
#2665000
10
b100 3
b10111111001100 @
#2670000
00
#2675000
10
b10111111001011 @
b1010 "
#2680000
00
#2685000
10
b1001 "
b10111111001010 @
#2690000
00
#2695000
10
b10111111001001 @
b1000 "
#2700000
00
#2705000
10
b111 "
b10111111001000 @
#2710000
00
#2715000
10
b10111111000111 @
b110 "
#2720000
00
#2725000
10
b101 "
b10111111000110 @
#2730000
00
#2735000
10
b10111111000101 @
b100 "
#2740000
00
#2745000
10
b11 "
b10111111000100 @
#2750000
00
#2755000
10
b10111111000011 @
b10 "
#2760000
00
#2765000
10
b1 "
b10111111000010 @
#2770000
00
#2775000
10
b10111111000001 @
1?
b0 "
b1011 =
#2780000
00
#2785000
10
1I
19
18
b10111111000000 @
b1011 3
b1011 "
07
#2790000
00
09
#2795000
19
10
b10111110111111 @
b11 !
#2800000
00
09
#2805000
19
10
b10 !
b10111110111110 @
#2810000
00
09
#2815000
19
10
b10111110111101 @
b1 !
#2820000
00
09
#2825000
19
10
b0 !
b10111110111100 @
b0 =
#2830000
00
09
#2835000
z9
10
b10111110111011 @
b100 !
0I
08
b0 3
0?
0/
#2840000
00
#2845000
10
b10111110111010 @
11
b11 =
#2850000
00
#2855000
10
b100 =
01
b10111110111001 @
1/
17
b11 3
#2860000
00
#2865000
10
b100 3
b10111110111000 @
#2870000
00
#2875000
10
b10111110110111 @
b1010 "
#2880000
00
#2885000
10
b1001 "
b10111110110110 @
#2890000
00
#2895000
10
b10111110110101 @
b1000 "
#2900000
00
#2905000
10
b111 "
b10111110110100 @
#2910000
00
#2915000
10
b10111110110011 @
b110 "
#2920000
00
#2925000
10
b101 "
b10111110110010 @
#2930000
00
#2935000
10
b10111110110001 @
b100 "
#2940000
00
#2945000
10
b11 "
b10111110110000 @
#2950000
00
#2955000
10
b10111110101111 @
b10 "
#2960000
00
#2965000
10
b1 "
b10111110101110 @
#2970000
00
#2975000
10
b10111110101101 @
b1011 =
b0 "
1?
#2980000
00
#2985000
10
b10111110101100 @
1I
19
b1011 3
b1011 "
07
18
#2990000
09
00
#2995000
10
19
b10111110101011 @
b11 !
#3000000
00
09
#3005000
19
10
b10111110101010 @
b10 !
#3010000
09
00
#3015000
10
19
b10111110101001 @
b1 !
#3020000
00
09
#3025000
19
10
b10111110101000 @
b0 !
b0 =
#3030000
09
00
#3035000
10
z9
b10111110100111 @
08
0/
0?
0I
b100 !
b0 3
#3040000
00
#3045000
10
b10111110100110 @
11
b11 =
#3050000
00
#3055000
10
b100 =
01
b11 3
b10111110100101 @
1/
17
#3060000
00
#3065000
10
b10111110100100 @
b100 3
#3070000
00
#3075000
10
b10111110100011 @
b1010 "
#3080000
00
#3085000
10
b1001 "
b10111110100010 @
#3090000
00
#3095000
10
b10111110100001 @
b1000 "
#3100000
00
#3105000
10
b111 "
b10111110100000 @
#3110000
00
#3115000
10
b10111110011111 @
b110 "
#3120000
00
#3125000
10
b101 "
b10111110011110 @
#3130000
00
#3135000
10
b10111110011101 @
b100 "
#3140000
00
#3145000
10
b11 "
b10111110011100 @
#3150000
00
#3155000
10
b10111110011011 @
b10 "
#3160000
00
#3165000
10
b1 "
b10111110011010 @
#3170000
00
#3175000
10
b10111110011001 @
b1011 =
1?
b0 "
#3180000
00
#3185000
10
b1011 "
b10111110011000 @
18
07
19
b1011 3
1I
#3190000
09
00
#3195000
10
19
b10111110010111 @
b11 !
#3200000
09
00
#3205000
10
19
b10 !
b10111110010110 @
#3210000
09
00
#3215000
10
19
b10111110010101 @
b1 !
#3220000
09
00
#3225000
10
19
b0 !
b0 =
b10111110010100 @
#3230000
09
00
#3235000
10
z9
b10111110010011 @
b100 !
0I
08
0?
b0 3
0/
#3240000
00
#3245000
10
b10111110010010 @
11
b11 =
#3250000
00
#3255000
10
b100 =
1/
b10111110010001 @
17
01
b11 3
#3260000
00
#3265000
10
b100 3
b10111110010000 @
#3270000
00
#3275000
10
b10111110001111 @
b1010 "
#3280000
00
#3285000
10
b1001 "
b10111110001110 @
#3290000
00
#3295000
10
b10111110001101 @
b1000 "
#3300000
00
#3305000
10
b111 "
b10111110001100 @
#3310000
00
#3315000
10
b10111110001011 @
b110 "
#3320000
00
#3325000
10
b101 "
b10111110001010 @
#3330000
00
#3335000
10
b10111110001001 @
b100 "
#3340000
00
#3345000
10
b11 "
b10111110001000 @
#3350000
00
#3355000
10
b10111110000111 @
b10 "
#3360000
00
#3365000
10
b1 "
b10111110000110 @
#3370000
00
#3375000
10
b10111110000101 @
b0 "
b1011 =
1?
#3380000
00
#3385000
10
b1011 "
b1011 3
1I
19
b10111110000100 @
07
18
#3390000
09
00
#3395000
10
19
b11 !
b10111110000011 @
#3400000
09
00
#3405000
10
19
b10111110000010 @
b10 !
#3410000
09
00
#3415000
10
19
b1 !
b10111110000001 @
#3420000
09
00
#3425000
10
19
b10111110000000 @
b0 !
b0 =
#3430000
09
00
#3435000
10
z9
08
b0 3
0?
0I
0/
b100 !
b10111101111111 @
#3440000
00
#3445000
10
b10111101111110 @
b11 =
11
#3450000
00
#3455000
10
01
b10111101111101 @
b11 3
b100 =
1/
17
#3460000
00
#3465000
10
b10111101111100 @
b100 3
#3470000
00
#3475000
10
b1010 "
b10111101111011 @
#3480000
00
#3485000
10
b10111101111010 @
b1001 "
#3490000
00
#3495000
10
b1000 "
b10111101111001 @
#3500000
00
#3505000
10
b10111101111000 @
b111 "
#3510000
00
#3515000
10
b110 "
b10111101110111 @
#3520000
00
#3525000
10
b10111101110110 @
b101 "
#3530000
00
#3535000
10
b100 "
b10111101110101 @
#3540000
00
#3545000
10
b10111101110100 @
b11 "
#3550000
00
#3555000
10
b10 "
b10111101110011 @
#3560000
00
#3565000
10
b10111101110010 @
b1 "
#3570000
00
#3575000
10
b0 "
1?
b10111101110001 @
b1011 =
#3580000
00
#3585000
10
b1011 3
07
18
1I
19
b1011 "
b10111101110000 @
#3590000
09
00
#3595000
10
19
b10111101101111 @
b11 !
#3600000
09
00
#3605000
10
19
b10 !
b10111101101110 @
#3610000
09
00
#3615000
10
19
b10111101101101 @
b1 !
#3620000
09
00
#3625000
10
19
b0 !
b0 =
b10111101101100 @
#3630000
09
00
#3635000
10
z9
b10111101101011 @
b100 !
08
b0 3
0I
0/
0?
#3640000
00
#3645000
10
b10111101101010 @
11
b11 =
#3650000
00
#3655000
10
b100 =
b11 3
17
b10111101101001 @
01
1/
#3660000
00
#3665000
10
b100 3
b10111101101000 @
#3670000
00
#3675000
10
b10111101100111 @
b1010 "
#3680000
00
#3685000
10
b1001 "
b10111101100110 @
#3690000
00
#3695000
10
b10111101100101 @
b1000 "
#3700000
00
#3705000
10
b111 "
b10111101100100 @
#3710000
00
#3715000
10
b10111101100011 @
b110 "
#3720000
00
#3725000
10
b101 "
b10111101100010 @
#3730000
00
#3735000
10
b10111101100001 @
b100 "
#3740000
00
#3745000
10
b11 "
b10111101100000 @
#3750000
00
#3755000
10
b10111101011111 @
b10 "
#3760000
00
#3765000
10
b1 "
b10111101011110 @
#3770000
00
#3775000
10
b10111101011101 @
b1011 =
1?
b0 "
#3780000
00
#3785000
10
b1011 "
b10111101011100 @
07
19
18
b1011 3
1I
#3790000
09
00
#3795000
10
19
b10111101011011 @
b11 !
#3800000
09
00
#3805000
10
19
b10 !
b10111101011010 @
#3810000
09
00
#3815000
10
19
b10111101011001 @
b1 !
#3820000
09
00
#3825000
10
19
b0 !
b10111101011000 @
b0 =
#3830000
09
00
#3835000
10
z9
b10111101010111 @
0I
b100 !
0/
b0 3
08
0?
#3840000
00
#3845000
10
b10111101010110 @
b11 =
11
#3850000
00
#3855000
10
01
b10111101010101 @
17
b100 =
b11 3
1/
#3860000
00
#3865000
10
b10111101010100 @
b100 3
#3870000
00
#3875000
10
b1010 "
b10111101010011 @
#3880000
00
#3885000
10
b10111101010010 @
b1001 "
#3890000
00
#3895000
10
b1000 "
b10111101010001 @
#3900000
00
#3905000
10
b10111101010000 @
b111 "
#3910000
00
#3915000
10
b110 "
b10111101001111 @
#3920000
00
#3925000
10
b10111101001110 @
b101 "
#3930000
00
#3935000
10
b100 "
b10111101001101 @
#3940000
00
#3945000
10
b10111101001100 @
b11 "
#3950000
00
#3955000
10
b10 "
b10111101001011 @
#3960000
00
#3965000
10
b10111101001010 @
b1 "
#3970000
00
#3975000
10
b0 "
1?
b10111101001001 @
b1011 =
#3980000
00
#3985000
10
b1011 "
b1011 3
19
1I
b10111101001000 @
18
07
#3990000
09
00
#3995000
10
19
b11 !
b10111101000111 @
#4000000
09
00
#4005000
10
19
b10111101000110 @
b10 !
#4010000
09
00
#4015000
10
19
b1 !
b10111101000101 @
#4020000
09
00
#4025000
10
19
b10111101000100 @
b0 =
b0 !
#4030000
09
00
#4035000
10
z9
b100 !
b10111101000011 @
0/
b0 3
0I
08
0?
#4040000
00
#4045000
10
b10111101000010 @
11
b11 =
#4050000
00
#4055000
10
b100 =
1/
17
b10111101000001 @
01
b11 3
#4060000
00
#4065000
10
b100 3
b10111101000000 @
#4070000
00
#4075000
10
b10111100111111 @
b1010 "
#4080000
00
#4085000
10
b1001 "
b10111100111110 @
#4090000
00
#4095000
10
b10111100111101 @
b1000 "
#4100000
00
#4105000
10
b111 "
b10111100111100 @
#4110000
00
#4115000
10
b10111100111011 @
b110 "
#4120000
00
#4125000
10
b101 "
b10111100111010 @
#4130000
00
#4135000
10
b10111100111001 @
b100 "
#4140000
00
#4145000
10
b11 "
b10111100111000 @
#4150000
00
#4155000
10
b10111100110111 @
b10 "
#4160000
00
#4165000
10
b1 "
b10111100110110 @
#4170000
00
#4175000
10
b10111100110101 @
b0 "
b1011 =
1?
#4180000
00
#4185000
10
b10111100110100 @
07
19
b1011 "
b1011 3
18
1I
#4190000
09
00
#4195000
10
19
b10111100110011 @
b11 !
#4200000
09
00
#4205000
10
19
b10 !
b10111100110010 @
#4210000
09
00
#4215000
10
19
b10111100110001 @
b1 !
#4220000
09
00
