DDR_controller/DDR_Post_Syn.vcd
$comment
TOOL:	simvision(64)	15.20-s086
$end

$date
    Apr 16, 2023 02:16:46
$end

$timescale
    1ps
$end


$scope module top_DDR_controller_tb $end

$scope module dut $end
$var wire 9 ! BURST_counter [8:0] $end
$var wire 9 " CAS_counter [8:0] $end
$var wire 11 # DRAM_Address [10:0] $end
$var wire 9 $ PRE_counter [8:0] $end
$var wire 9 % RCD_counter [8:0] $end
$var wire 9 & REF_counter [8:0] $end
$var wire 16 ' Read_data [15:0] $end
$var wire 1 ( WR_command $end
$var wire 16 ) Write_data [15:0] $end
$var wire 6 * active_row[0] [5:0] $end
$var wire 6 + active_row[1] [5:0] $end
$var wire 6 , active_row[2] [5:0] $end
$var wire 6 - active_row[3] [5:0] $end
$var wire 6 . bank_id [5:0] $end
$var wire 1 / busy $end
$var wire 1 0 clk $end
$var wire 1 1 cmd_exec_ack $end
$var wire 6 2 column_addr [5:0] $end
$var wire 4 3 controller_state [3:0] $end
$var wire 6 4 d_addr [5:0] $end
$var wire 7 5 data_counter [6:0] $end
$var wire 8 6 dq [7:0] $end
$var wire 1 7 dram_cas $end
$var wire 1 8 dram_dqs $end
$var wire 1 9 dram_ras $end
$var wire 8 : dram_wr_data [7:0] $end
$var wire 1 ; n_0 $end
$var wire 1 < n_1 $end
$var wire 1 = n_2 $end
$var wire 1 > n_3 $end
$var wire 1 ? n_4 $end
$var wire 1 @ n_5 $end
$var wire 1 A n_6 $end
$var wire 1 B n_7 $end
$var wire 1 C n_8 $end
$var wire 1 D n_9 $end
$var wire 1 E n_10 $end
$var wire 1 F n_11 $end
$var wire 1 G n_12 $end
$var wire 1 H n_13 $end
$var wire 1 I n_14 $end
$var wire 1 J n_15 $end
$var wire 1 K n_16 $end
$var wire 1 L n_17 $end
$var wire 1 M n_18 $end
$var wire 1 N n_19 $end
$var wire 1 O n_20 $end
$var wire 1 P n_21 $end
$var wire 1 Q n_22 $end
$var wire 1 R n_23 $end
$var wire 1 S n_24 $end
$var wire 1 T n_25 $end
$var wire 1 U n_26 $end
$var wire 1 V n_27 $end
$var wire 1 W n_28 $end
$var wire 1 X n_29 $end
$var wire 1 Y n_30 $end
$var wire 1 Z n_31 $end
$var wire 1 [ n_32 $end
$var wire 1 \ n_33 $end
$var wire 1 ] n_34 $end
$var wire 1 ^ n_35 $end
$var wire 1 _ n_36 $end
$var wire 1 ` n_37 $end
$var wire 1 a n_38 $end
$var wire 1 b n_39 $end
$var wire 1 c n_40 $end
$var wire 1 d n_41 $end
$var wire 1 e n_42 $end
$var wire 1 f n_43 $end
$var wire 1 g n_44 $end
$var wire 1 h n_45 $end
$var wire 1 i n_46 $end
$var wire 1 j n_47 $end
$var wire 1 k n_48 $end
$var wire 1 l n_49 $end
$var wire 1 m n_50 $end
$var wire 1 n n_51 $end
$var wire 1 o n_52 $end
$var wire 1 p n_53 $end
$var wire 1 q n_54 $end
$var wire 1 r n_55 $end
$var wire 1 s n_56 $end
$var wire 1 t n_57 $end
$var wire 1 u n_58 $end
$var wire 1 v n_59 $end
$var wire 1 w n_60 $end
$var wire 1 x n_61 $end
$var wire 1 y n_62 $end
$var wire 1 z n_63 $end
$var wire 1 { n_64 $end
$var wire 1 | n_65 $end
$var wire 1 } n_66 $end
$var wire 1 ~ n_67 $end
$var wire 1 !! n_68 $end
$var wire 1 "! n_69 $end
$var wire 1 #! n_70 $end
$var wire 1 $! n_71 $end
$var wire 1 %! n_72 $end
$var wire 1 &! n_73 $end
$var wire 1 '! n_74 $end
$var wire 1 (! n_75 $end
$var wire 1 )! n_76 $end
$var wire 1 *! n_77 $end
$var wire 1 +! n_78 $end
$var wire 1 ,! n_79 $end
$var wire 1 -! n_80 $end
$var wire 1 .! n_81 $end
$var wire 1 /! n_82 $end
$var wire 1 0! n_83 $end
$var wire 1 1! n_84 $end
$var wire 1 2! n_85 $end
$var wire 1 3! n_86 $end
$var wire 1 4! n_87 $end
$var wire 1 5! n_88 $end
$var wire 1 6! n_89 $end
$var wire 1 7! n_90 $end
$var wire 1 8! n_91 $end
$var wire 1 9! n_92 $end
$var wire 1 :! n_93 $end
$var wire 1 ;! n_94 $end
$var wire 1 <! n_95 $end
$var wire 1 =! n_96 $end
$var wire 1 >! n_97 $end
$var wire 1 ?! n_98 $end
$var wire 1 @! n_99 $end
$var wire 1 A! n_100 $end
$var wire 1 B! n_101 $end
$var wire 1 C! n_102 $end
$var wire 1 D! n_103 $end
$var wire 1 E! n_104 $end
$var wire 1 F! n_105 $end
$var wire 1 G! n_106 $end
$var wire 1 H! n_107 $end
$var wire 1 I! n_108 $end
$var wire 1 J! n_109 $end
$var wire 1 K! n_110 $end
$var wire 1 L! n_111 $end
$var wire 1 M! n_112 $end
$var wire 1 N! n_113 $end
$var wire 1 O! n_114 $end
$var wire 1 P! n_115 $end
$var wire 1 Q! n_116 $end
$var wire 1 R! n_117 $end
$var wire 1 S! n_118 $end
$var wire 1 T! n_119 $end
$var wire 1 U! n_120 $end
$var wire 1 V! n_121 $end
$var wire 1 W! n_122 $end
$var wire 1 X! n_123 $end
$var wire 1 Y! n_124 $end
$var wire 1 Z! n_125 $end
$var wire 1 [! n_126 $end
$var wire 1 \! n_127 $end
$var wire 1 ]! n_128 $end
$var wire 1 ^! n_129 $end
$var wire 1 _! n_130 $end
$var wire 1 `! n_131 $end
$var wire 1 a! n_132 $end
$var wire 1 b! n_133 $end
$var wire 1 c! n_134 $end
$var wire 1 d! n_135 $end
$var wire 1 e! n_136 $end
$var wire 1 f! n_137 $end
$var wire 1 g! n_138 $end
$var wire 1 h! n_140 $end
$var wire 1 i! n_141 $end
$var wire 1 j! n_142 $end
$var wire 1 k! n_143 $end
$var wire 1 l! n_144 $end
$var wire 1 m! n_145 $end
$var wire 1 n! n_146 $end
$var wire 1 o! n_147 $end
$var wire 1 p! n_148 $end
$var wire 1 q! n_149 $end
$var wire 1 r! n_150 $end
$var wire 1 s! n_151 $end
$var wire 1 t! n_152 $end
$var wire 1 u! n_153 $end
$var wire 1 v! n_154 $end
$var wire 1 w! n_155 $end
$var wire 1 x! n_156 $end
$var wire 1 y! n_157 $end
$var wire 1 z! n_158 $end
$var wire 1 {! n_159 $end
$var wire 1 |! n_160 $end
$var wire 1 }! n_161 $end
$var wire 1 ~! n_163 $end
$var wire 1 !" n_164 $end
$var wire 1 "" n_165 $end
$var wire 1 #" n_166 $end
$var wire 1 $" n_167 $end
$var wire 1 %" n_168 $end
$var wire 1 &" n_169 $end
$var wire 1 '" n_170 $end
$var wire 1 (" n_171 $end
$var wire 1 )" n_172 $end
$var wire 1 *" n_173 $end
$var wire 1 +" n_174 $end
$var wire 1 ," n_175 $end
$var wire 1 -" n_176 $end
$var wire 1 ." n_177 $end
$var wire 1 /" n_178 $end
$var wire 1 0" n_179 $end
$var wire 1 1" n_180 $end
$var wire 1 2" n_181 $end
$var wire 1 3" n_182 $end
$var wire 1 4" n_183 $end
$var wire 1 5" n_184 $end
$var wire 1 6" n_185 $end
$var wire 1 7" n_186 $end
$var wire 1 8" n_187 $end
$var wire 1 9" n_188 $end
$var wire 1 :" n_189 $end
$var wire 1 ;" n_190 $end
$var wire 1 <" n_191 $end
$var wire 1 =" n_192 $end
$var wire 1 >" n_193 $end
$var wire 1 ?" n_194 $end
$var wire 1 @" n_195 $end
$var wire 1 A" n_196 $end
$var wire 1 B" n_197 $end
$var wire 1 C" n_198 $end
$var wire 1 D" n_199 $end
$var wire 1 E" n_200 $end
$var wire 1 F" n_201 $end
$var wire 1 G" n_202 $end
$var wire 1 H" n_203 $end
$var wire 1 I" n_204 $end
$var wire 1 J" n_205 $end
$var wire 1 K" n_206 $end
$var wire 1 L" n_207 $end
$var wire 1 M" n_208 $end
$var wire 1 N" n_209 $end
$var wire 1 O" n_210 $end
$var wire 1 P" n_211 $end
$var wire 1 Q" n_212 $end
$var wire 1 R" n_213 $end
$var wire 1 S" n_214 $end
$var wire 1 T" n_215 $end
$var wire 1 U" n_216 $end
$var wire 1 V" n_217 $end
$var wire 1 W" n_218 $end
$var wire 1 X" n_219 $end
$var wire 1 Y" n_220 $end
$var wire 1 Z" n_221 $end
$var wire 1 [" n_222 $end
$var wire 1 \" n_223 $end
$var wire 1 ]" n_224 $end
$var wire 1 ^" n_225 $end
$var wire 1 _" n_226 $end
$var wire 1 `" n_227 $end
$var wire 1 a" n_228 $end
$var wire 1 b" n_229 $end
$var wire 1 c" n_230 $end
$var wire 1 d" n_231 $end
$var wire 1 e" n_232 $end
$var wire 1 f" n_233 $end
$var wire 1 g" n_234 $end
$var wire 1 h" n_235 $end
$var wire 1 i" n_236 $end
$var wire 1 j" n_237 $end
$var wire 1 k" n_238 $end
$var wire 1 l" n_239 $end
$var wire 1 m" n_240 $end
$var wire 1 n" n_241 $end
$var wire 1 o" n_242 $end
$var wire 1 p" n_243 $end
$var wire 1 q" n_244 $end
$var wire 1 r" n_245 $end
$var wire 1 s" n_246 $end
$var wire 1 t" n_247 $end
$var wire 1 u" n_248 $end
$var wire 1 v" n_249 $end
$var wire 1 w" n_250 $end
$var wire 1 x" n_251 $end
$var wire 1 y" n_252 $end
$var wire 1 z" n_253 $end
$var wire 1 {" n_254 $end
$var wire 1 |" n_255 $end
$var wire 1 }" n_256 $end
$var wire 1 ~" n_257 $end
$var wire 1 !# n_258 $end
$var wire 1 "# n_259 $end
$var wire 1 ## n_260 $end
$var wire 1 $# n_261 $end
$var wire 1 %# n_262 $end
$var wire 1 &# n_263 $end
$var wire 1 '# n_264 $end
$var wire 1 (# n_265 $end
$var wire 1 )# n_266 $end
$var wire 1 *# n_267 $end
$var wire 1 +# n_268 $end
$var wire 1 ,# n_269 $end
$var wire 1 -# n_270 $end
$var wire 1 .# n_271 $end
$var wire 1 /# n_272 $end
$var wire 1 0# n_273 $end
$var wire 1 1# n_274 $end
$var wire 1 2# n_275 $end
$var wire 1 3# n_276 $end
$var wire 1 4# n_277 $end
$var wire 1 5# n_278 $end
$var wire 1 6# n_279 $end
$var wire 1 7# n_280 $end
$var wire 1 8# n_281 $end
$var wire 1 9# n_282 $end
$var wire 1 :# n_283 $end
$var wire 1 ;# n_284 $end
$var wire 1 <# n_285 $end
$var wire 1 =# n_286 $end
$var wire 1 ># n_287 $end
$var wire 1 ?# n_288 $end
$var wire 1 @# n_289 $end
$var wire 1 A# n_292 $end
$var wire 1 B# n_294 $end
$var wire 1 C# n_295 $end
$var wire 1 D# n_296 $end
$var wire 1 E# n_297 $end
$var wire 1 F# n_298 $end
$var wire 1 G# n_299 $end
$var wire 1 H# n_300 $end
$var wire 1 I# n_301 $end
$var wire 1 J# n_302 $end
$var wire 1 K# n_303 $end
$var wire 1 L# n_304 $end
$var wire 1 M# n_305 $end
$var wire 1 N# n_306 $end
$var wire 1 O# n_307 $end
$var wire 1 P# n_308 $end
$var wire 1 Q# n_309 $end
$var wire 1 R# n_310 $end
$var wire 1 S# n_311 $end
$var wire 1 T# n_312 $end
$var wire 1 U# n_313 $end
$var wire 1 V# n_314 $end
$var wire 1 W# n_315 $end
$var wire 1 X# n_316 $end
$var wire 1 Y# n_317 $end
$var wire 1 Z# n_318 $end
$var wire 1 [# n_319 $end
$var wire 1 \# n_320 $end
$var wire 1 ]# n_321 $end
$var wire 1 ^# n_322 $end
$var wire 1 _# n_323 $end
$var wire 1 `# n_324 $end
$var wire 1 a# n_325 $end
$var wire 1 b# n_326 $end
$var wire 1 c# n_330 $end
$var wire 1 d# n_337 $end
$var wire 1 e# n_339 $end
$var wire 1 f# n_363 $end
$var wire 1 g# n_365 $end
$var wire 1 h# n_366 $end
$var wire 1 i# n_367 $end
$var wire 1 j# n_368 $end
$var wire 1 k# n_369 $end
$var wire 4 l# next_controller_state [3:0] $end
$var wire 4 m# open_row [3:0] $end
$var wire 14 n# refresh_counter [13:0] $end
$var wire 1 o# refresh_request $end
$var wire 1 p# reset $end
$var wire 6 q# row_addr [5:0] $end
$var wire 1 r# temp_cmd $end
$var wire 16 s# temp_write_data[0] [15:0] $end
$var wire 16 t# temp_write_data[1] [15:0] $end
$var wire 16 u# temp_write_data[2] [15:0] $end
$var wire 16 v# temp_write_data[3] [15:0] $end
$var wire 1 w# valid_data $end
$var wire 1 x# w_en $end
$var wire 6 y# write_burst_count [5:0] $end
$upscope $end

$upscope $end

$enddefinitions $end
#0
$dumpvars
bzxxx !
bzxxxx "
bx #
bzxxxx $
bzxxxx %
bx &
b0 '
x(
bx )
bx *
bx +
bx ,
bx -
bzxx .
x/
00
x1
bzxxx 2
bx 3
bx 4
bzxxxx 5
bx 6
x7
x8
x9
bx :
x;
x<
x=
x>
x?
x@
xA
xB
xC
xD
xE
xF
xG
xH
xI
xJ
xK
xL
xM
xN
xO
xP
xQ
xR
xS
xT
xU
xV
xW
xX
xY
xZ
x[
x\
x]
x^
x_
x`
xa
xb
xc
xd
xe
xf
xg
xh
xi
xj
xk
xl
xm
xn
xo
xp
xq
xr
xs
xt
xu
xv
xw
xx
xy
xz
x{
x|
x}
x~
x!!
x"!
x#!
x$!
x%!
x&!
x'!
x(!
x)!
x*!
x+!
x,!
x-!
x.!
x/!
x0!
x1!
x2!
x3!
x4!
x5!
x6!
x7!
x8!
x9!
x:!
x;!
x<!
x=!
x>!
x?!
x@!
xA!
xB!
xC!
xD!
xE!
xF!
xG!
xH!
xI!
xJ!
xK!
xL!
xM!
xN!
xO!
xP!
xQ!
xR!
xS!
xT!
xU!
xV!
xW!
xX!
xY!
xZ!
x[!
x\!
x]!
x^!
x_!
x`!
xa!
xb!
xc!
xd!
xe!
xf!
xg!
xh!
xi!
xj!
xk!
xl!
xm!
xn!
xo!
xp!
xq!
xr!
xs!
xt!
xu!
xv!
xw!
xx!
xy!
xz!
x{!
x|!
x}!
x~!
x!"
x""
x#"
x$"
x%"
x&"
x'"
x("
x)"
x*"
x+"
x,"
x-"
x."
x/"
x0"
x1"
x2"
x3"
x4"
x5"
x6"
x7"
x8"
x9"
x:"
x;"
x<"
x="
x>"
x?"
x@"
xA"
xB"
xC"
xD"
xE"
xF"
xG"
xH"
xI"
xJ"
xK"
xL"
xM"
xN"
xO"
xP"
xQ"
xR"
xS"
xT"
xU"
xV"
xW"
xX"
xY"
xZ"
x["
x\"
x]"
x^"
x_"
x`"
xa"
xb"
xc"
xd"
xe"
xf"
xg"
xh"
xi"
xj"
xk"
xl"
xm"
xn"
xo"
xp"
xq"
xr"
xs"
xt"
xu"
xv"
xw"
xx"
xy"
xz"
x{"
x|"
x}"
x~"
x!#
x"#
x##
x$#
x%#
x&#
x'#
x(#
x)#
x*#
x+#
x,#
x-#
x.#
x/#
x0#
x1#
x2#
x3#
x4#
x5#
x6#
x7#
x8#
x9#
x:#
x;#
x<#
x=#
x>#
x?#
x@#
xA#
xB#
xC#
xD#
xE#
xF#
xG#
xH#
xI#
xJ#
xK#
xL#
xM#
xN#
xO#
xP#
xQ#
xR#
xS#
xT#
xU#
xV#
xW#
xX#
xY#
xZ#
x[#
x\#
x]#
x^#
x_#
x`#
xa#
xb#
xc#
xd#
xe#
xf#
xg#
xh#
xi#
xj#
xk#
bx l#
bx m#
bx n#
xo#
1p#
bx q#
xr#
bx s#
bx t#
bx u#
bx v#
xw#
xx#
bxz y#
$end
#5
0#"
#7
0*#
0@"
0A"
0B"
0C"
#11
0F
#12
0L"
#21
0x!
0y!
0z!
0{!
0|!
#22
0/#
#27
0O
#29
06"
#31
0Y!
#49
0-"
#53
1H!
1I!
10!
15!
#64
17"
#66
0w#
1v!
#83
1,"
#99
bx00000 +
bx0x ,
#100
bx00000 ,
bx00000 *
bx00000 -
#113
0c!
0d!
0>"
0?"
#115
0D
#155
0O"
#161
1P"
1R"
1S"
1U"
1V"
1W"
1X"
1Z"
1["
1\"
1]"
1^"
#173
1I
#185
0Q"
#186
0Y"
0_"
0`"
0h"
#190
1a"
1b"
1c"
1d"
#191
11!
#195
1(!
#201
1W
#208
1Q!
#210
0m
#220
0^!
#227
1%!
#230
0n!
#240
0w
#241
1u!
#242
0[!
#244
1M!
1>!
#246
03!
#248
0V
#249
1`!
#264
1T!
#266
0$!
#269
b0 m#
#274
09!
#279
1q"
1s"
1t"
1u"
#296
0,!
0-!
#300
0|"
0!#
#301
0w"
0x"
0y"
0z"
0{"
0~"
#307
1##
1$#
b0 +
17!
18!
#308
b0 ,
b0 -
b0 *
#309
0~
0*!
#310
0)!
#311
0}
0!!
0}"
#315
1D!
#316
0Z!
#320
0r"
#324
1F!
#331
0@!
#333
1,#
0?!
#335
06!
#351
0]!
#356
0J!
#365
0B!
0C!
#367
0K!
#371
1\!
1_!
#378
bx0xxxx0x :
#380
b0 :
1.#
0L!
#383
0;!
#394
0T"
#457
0W!
#487
1v"
#1380
13#
#2380
05#
#5000
10
#5104
bz1xxx $
#5105
bzx1xx %
#5108
bz11xx %
bz1x1x $
bz1xx !
bx1x1x1xx n#
bx1xxxx1x &
#5109
b1xxxxxx1x1x1xx n#
#5110
bz1x11 $
bzxx1x "
bx1xxx11x &
#5112
b11xxxx11x1x1xx n#
bz1x1x "
#5115
bx0xxz y#
#5116
bz1x11 "
#5119
bx10xx11x &
#5120
bx010x011x &
b11xxxx1101010x n#
#5121
bx0x0z y#
bz10x !
b100011x &
#5122
b11xxxx11010100 n#
0o#
#5123
b0x0x0z y#
#5124
bz110x %
b11000x11010100 n#
bz1011 "
#5125
b11000011010100 n#
b1000110 &
bz1011 $
#5126
b0x000z y#
#5128
bz1100 %
bz100 !
0=
#5132
01
bzxxx0 5
#5133
b0z y#
bx0xx 3
0Y
#5135
0+"
#5137
bzxx00 5
#5139
bx0x0 3
#5141
bz0x0 2
0k#
#5142
bz000 2
#5144
1k
bx000 3
1A
#5145
0L
1<
#5146
1?
#5147
1U
#5150
1g!
#5151
12#
bz0x00 5
1@
#5154
1e!
b0x0x q#
bzx0 .
#5155
bz00 .
1R#
1h!
b0 q#
b0 3
#5157
1J#
bz0000 5
#5159
1Q#
1S#
1y
1%"
#5160
1E!
1+!
#5161
1f!
#5162
1b#
1>
#5163
1O#
1X#
1^#
#5166
1h#
#5167
1U#
1Z
#5168
1/"
#5169
1M#
#5170
1I#
1N#
#5172
1)"
#5173
0x
1X
#5177
19"
0[
#5178
04!
#5183
1K#
#5184
1d#
#5185
0~!
#5186
1e#
#5187
0G!
1/!
#5188
0"#
#5190
1p!
#5191
0Z#
#5192
1q!
#5193
1?#
1:!
#5195
0E#
1`#
#5197
1(#
1)#
#5198
1o!
#5199
1'#
0J
0.!
#5200
0P!
0C#
1""
#5201
1%#
1&#
#5202
1A#
0a!
#5206
0@#
#5207
1F#
#5209
0!"
#5210
1}!
#5211
1g#
0<!
#5213
1V#
#5214
1G
#5215
1q
#5217
0N!
0x#
#5218
1P#
1]#
0w!
#5220
1Y#
#5222
11#
1W#
1i#
0A!
#5223
1\#
1_#
#5224
0&!
0'!
#5225
b0xxx 4
#5226
b0x0 4
#5227
0M
0$"
#5228
1+#
#5229
0:"
0\
#5230
1O!
#5231
0r!
08"
#5233
0C
z*"
#5235
0E
1z
#5238
0k!
#5240
1S!
#5241
0V!
0t!
#5242
1H#
0S
0]
#5243
0-#
0o
0p
#5244
0K
0R
0T
#5246
0s
#5247
0n
0H
#5249
07
#5250
0l
#5251
1B#
#5255
0|
12"
#5261
1."
#5265
1f#
#5268
1c#
0'"
#5269
19#
#5270
1j!
09
#5274
1T#
1s!
#5277
1[#
1m!
#5286
1U!
1X!
#5291
1("
#5296
0v
0P
#5297
1"!
#5298
00"
#5299
1{
#5300
10#
#5301
0r
#5302
b0 4
#5307
0l!
#5313
0&"
0/
#5314
1p"
#5317
1Q
#5320
0=!
#5325
14#
#5326
1D#
#5331
1G#
#5333
1j
#5343
06#
#5345
0#!
#5349
1<#
#5352
1a#
#5355
0t
#5367
07#
#5377
0^
#5379
1;#
#5380
01"
#5386
1L#
02!
#5407
0>#
#5411
0u
#5412
0=#
0N
#5417
0j#
#5424
0;
#5445
b0xxx l#
#5454
1R!
#5490
b0xx l#
#5491
b0x l#
#5492
1B
#5530
1b!
#5552
08#
#5622
0:#
#5694
b0 l#
#10000
00
#15000
10
#20000
00
#25000
10
#30000
00
b1010101010101010 )
0p#
b1101011010 #
1(
#30006
0i!
#30013
1#"
#30016
1C"
1B"
1@"
1A"
#30017
1*#
#30031
1F
#30056
1w#
#30065
1e
1f
1h
1i
1`
1a
#30076
0b
0c
0d
0g
0_
#30077
0v!
#30081
1O
#30091
1Y!
#30121
x!#
x|"
#30122
16"
#30140
1~
1*!
#30141
1)!
#30143
1}
1!!
#30150
07"
#30170
xd!
1D
#30171
x?"
#30211
1O"
#30229
x]"
xP"
x["
xV"
xU"
xZ"
#30234
0c"
0d"
0b"
#30245
0a"
#30253
0W
#30262
1m
#30269
x~"
x{"
xz"
xy"
xw"
xx"
#30274
1^!
#30318
1V
#31000
b0 6
#35000
10
#35104
b11000011010111 n#
#35110
x1
#35121
bz010 2
#35124
0A
#35126
1r#
#35127
b11000011010011 n#
#35136
b101010 q#
#35137
bz01 .
#35138
b101011 q#
#35156
1Z#
#35169
0(#
#35174
0+#
#35180
1"#
#35182
00#
#35197
0m!
b10 4
#35205
1n!
xj#
#35211
1-#
#35229
1l!
#35230
1{!
1y!
#35233
1z!
#35236
xF
#35241
xI
#35270
xB
#35286
1k!
#35316
0j!
#35327
xb!
#35371
x8#
#35376
xh
xe
xf
xa
xi
x`
#35453
x:#
#35509
b0x l#
#40000
00
b1111111100000000 )
#45000
10
#45122
b11000011010010 n#
#45129
b0x 3
#45142
bz0x0 2
#45144
1A
#45154
bz0x .
bx0x0x1 q#
#45155
bx0x0xx q#
#45159
xp!
#45171
0q
#45180
xK#
#45188
x$"
x"#
#45197
x(#
#45216
x("
#45217
xy!
xa!
x{!
#45218
xn!
#45219
xz!
#45228
x+#
#45238
xk!
#45242
x/
#45244
b0x0 4
#45245
x-#
#45257
xw!
#45261
x9#
#45267
x6#
#45270
xj!
#45280
xm!
#45291
x<#
#45300
xB#
#45302
x0#
#45310
xl!
#45319
x;#
#45324
x9
#45325
x>#
#45385
b0xx l#
#45399
x=#
#45406
x#!
#45467
b0xxx l#
#45484
x;
#45552
xQ!
#45623
x[!
#45781
x\!
#50000
b1100110011001100 )
00
#55000
10
#55104
b11000011010011 n#
#55119
b0x0x 3
#55120
b11000011010001 n#
#55121
bz000x 5
#55124
0A
#55129
xg!
#55133
xh!
#55135
b0xxx 3
#55140
x>
#55169
x/!
#55180
x}!
#55181
xe#
#55205
x)"
#55206
xA!
#55221
x`#
#55228
x!"
#55229
x7
#55267
xM
#55271
x."
#55272
x_!
#55277
x2"
#55281
x'!
x&!
#55287
xC
#55298
xf#
#55307
x(!
#55330
xH!
xI!
#55339
x4#
#55341
x6"
#55360
xP
#55367
x7#
x&"
#55376
x7"
#55380
xQ
#55388
xj
#55393
xa"
xd"
#55401
x%#
#55410
xa#
#55424
x3!
#55425
bx l#
#55426
b0xx 4
#55438
bx0x0xx 4
#55441
x1"
#55444
xO"
#55447
x^
#55456
x0!
#55459
x-"
#55479
xb"
xc"
#55489
x,"
#55511
x@"
xB"
#55559
b0xx m#
#55566
bx m#
#55581
bx0x0xx *
bx0x0xx +
#55585
x##
#55594
x,#
#55643
xQ"
#55644
xT"
xh"
x_"
#55674
x.#
#55685
xv"
xu"
xq"
#55724
xr"
#55743
x}"
#55782
x)#
#56674
x3#
x1#
#57674
x5#
#60000
00
b1110111011101110 )
#65000
10
#65111
bz11x0 %
#65114
bz11xx %
#65119
bz1xxx %
#65122
b11000011010000 n#
#65123
bz10x1 "
#65124
bzx0x1 "
bz00xx 5
#65125
x<
#65128
bzx0xx "
#65137
xU
#65138
xf!
#65144
1A
#65145
xL
#65147
xH
#65150
bx 3
#65156
xT!
#65161
xE#
#65172
xX
#65183
xR#
#65191
0Z#
#65200
x""
xX#
xo!
#65206
x?#
#65209
x.!
#65215
1q
#65220
x<!
#65221
xd#
#65231
x[
#65232
x~!
#65240
xx#
#65248
x@#
#65254
xH#
#65260
0^#
#65262
x%!
#65271
xY#
#65273
x#"
#65278
xi#
#65294
x_#
#65295
x'"
#65296
xs
#65298
1V!
#65299
xz
#65305
x*"
xg#
#65314
x+"
#65318
xL"
#65322
xR
#65328
x$!
#65329
0P#
#65333
x@!
#65334
xw#
#65335
xJ!
x*#
#65336
xl
x?!
#65342
xb#
#65343
xE
#65344
x|
#65352
1T
#65353
1p
#65360
x5!
#65361
x/"
#65367
xD!
#65368
x]
#65371
x=!
#65374
xF!
#65375
x7!
#65379
0U!
#65380
xw
#65381
xO
#65385
x"!
#65405
x]!
#65415
x6!
#65420
x>!
#65423
bx :
#65425
xZ!
#65488
bx 6
#70000
00
b1000100010001 )
#75000
10
#75104
b11000011011011 n#
#75105
bz1x0 !
#75108
bzxxxx "
b11000011011111 n#
#75112
b100011x &
#75114
bz1xx !
#75121
b10001xx &
#75123
bz101x $
#75124
0A
#75127
bzxxx !
b11000011001111 n#
bzxxxx %
#75130
xk
#75135
xk#
#75142
bz0xxx 5
#75156
1Z#
#75157
xC#
#75159
1P#
#75163
1^#
#75170
xY
#75175
x9"
#75180
0G
#75182
xy
#75191
xN!
#75192
x%"
#75198
xh#
#75212
xG!
#75233
xW
#75239
x:!
#75246
xM!
#75250
x:"
#75261
xm
#75262
x>"
#75280
xV
#75297
x8"
#75306
x^"
xR"
xX"
xS"
xW"
x\"
#75341
x*!
x~
#75342
x)!
#75343
x!!
x}
#75435
xc!
#80000
00
#85000
10
#85122
b11000011001110 n#
#85123
b1000xxx &
#85127
bz10xx $
#85134
bzxxxx 5
#85144
1A
#85148
b0xz y#
#85171
0q
#85192
xQ#
#85198
xZ
#85203
xU#
#85233
xu!
#85234
xv!
#85255
xF#
#85265
xK!
#85274
xW#
#85302
x\
#85319
x-!
#85340
xT#
#85350
xv
#85359
x1!
#85365
xC!
#85406
xD#
#85423
x2!
#85444
xS
#85504
x;!
#85508
x{
#90000
00
#95000
10
#95104
b11000011001111 n#
#95105
b1x00xxx &
#95106
b1x0xxxx &
#95107
b1xxxxxx &
#95110
b0xxz y#
bz1xxx $
#95120
b11000011001101 n#
#95121
bzxxxx $
#95124
0A
#95127
b0xxxxxxx &
#95132
x@
#95146
x=
#95147
xA#
#95178
xx
#95188
xJ#
#95192
xS#
#95260
xV#
#95280
xp"
#95305
x,!
#95328
xc#
#95351
xB!
#100000
00
#105000
10
#105106
b0xxxxxxxx &
#105107
bx &
#105122
b11000011001100 n#
#105140
b0xxxz y#
#105144
1A
#105188
x+!
#105191
0Z#
#105214
1G
#105215
1q
#105225
x4!
#105241
0V!
#105244
xL!
#110000
00
#115000
10
#115104
b11000011001111 n#
#115119
b0xxxxz y#
#115124
0A
#115127
b11000011001011 n#
#115128
x?
#115156
1Z#
#115201
xW!
#120000
00
#125000
10
#125110
bxz y#
#125122
b11000011001010 n#
#125144
1A
#125171
0q
#130000
00
#135000
10
#135104
b11000011001011 n#
#135120
b11000011001001 n#
#135124
0A
#140000
00
#145000
10
#145122
b11000011001000 n#
#145144
1A
#145191
0Z#
#145215
1q
#145260
0^#
#145298
1V!
#145314
0p
#150000
00
#155000
10
#155104
b11000011001011 n#
#155108
b11000011001111 n#
#155120
b11000011000111 n#
#155124
0A
#155156
1Z#
#155163
1^#
#155180
0G
#160000
00
#165000
10
#165122
b11000011000110 n#
#165144
1A
#165171
0q
#170000
00
#175000
10
#175104
b11000011000111 n#
#175120
b11000011000101 n#
#175124
0A
#180000
00
#185000
10
#185122
b11000011000100 n#
#185144
1A
#185191
0Z#
#185214
1G
#185215
1q
#185241
0V!
#190000
00
#195000
10
#195104
b11000011000111 n#
#195124
0A
#195127
b11000011000011 n#
#195156
1Z#
#200000
00
#205000
10
#205122
b11000011000010 n#
#205144
1A
#205171
0q
#210000
00
#215000
10
#215104
b11000011000011 n#
#215120
b11000011000001 n#
#215124
0A
#220000
00
#225000
10
#225122
b11000011000000 n#
#225144
1A
#225191
0Z#
#225215
1q
#225260
0^#
#225298
1V!
#225329
0P#
#225353
1p
#225397
0O#
#225435
1U!
#225466
0]#
#225489
1K
#225490
1o
#225516
0X!
#230000
00
#235000
10
#235104
b11000011101011 n#
#235108
b11000011111111 n#
#235124
0A
#235127
b11000010111111 n#
#235156
1Z#
#235159
1P#
1]#
#235163
1O#
1^#
#235180
0G
#235185
0T
#240000
00
#245000
10
#245122
b11000010111110 n#
#245144
1A
#245171
0q
#250000
00
#255000
10
#255104
b11000010111111 n#
#255120
b11000010111101 n#
#255124
0A
#260000
00
#265000
10
#265122
b11000010111100 n#
#265144
1A
#265191
0Z#
#265214
1G
#265215
1q
#265241
0V!
#270000
00
#275000
10
#275104
b11000010111111 n#
#275124
0A
#275127
b11000010111011 n#
#275156
1Z#
#280000
00
#285000
10
#285122
b11000010111010 n#
#285144
1A
#285171
0q
#290000
00
#295000
10
#295104
b11000010111011 n#
#295120
b11000010111001 n#
#295124
0A
#300000
00
#305000
10
#305122
b11000010111000 n#
#305144
1A
#305191
0Z#
#305215
1q
#305260
0^#
#305298
1V!
#305314
0p
#310000
00
#315000
10
#315104
b11000010111011 n#
#315108
b11000010111111 n#
#315120
b11000010110111 n#
#315124
0A
#315156
1Z#
#315163
1^#
#315180
0G
#320000
00
#325000
10
#325122
b11000010110110 n#
#325144
1A
#325171
0q
#330000
00
#335000
10
#335104
b11000010110111 n#
#335120
b11000010110101 n#
#335124
0A
#340000
00
#345000
10
#345122
b11000010110100 n#
#345144
1A
#345191
0Z#
#345214
1G
#345215
1q
#345241
0V!
#350000
00
#355000
10
0(
b1101101111 #
#355009
1i!
#355063
11#
#355065
xc
xb
x_
#355104
b11000010110111 n#
#355124
0A
#355127
b11000010110011 n#
#355156
1Z#
#360000
00
